# Exported from ProBuilder
# http://www.procore3d.com/probuilder
# 2/9/2019 4:27:17 PM

mtllib ./Floor.mtl
o Floor

g Floor
v 7 -1 52
v 2 -1 52
v 7 0 52
v 2 0 52
v 2 -1 52
v 2 -1 36
v 2 0 52
v 2 0 36
v 2 -1 36
v 7 -1 36
v 2 0 36
v 7 0 36
v 7 -1 36
v 7 -1 52
v 7 0 36
v 7 0 52
v 7 0 52
v 2 0 52
v 7 0 36
v 2 0 36
v 7 -1 36
v 2 -1 36
v 7 -1 52
v 2 -1 52
v 12 -1 40
v 7 -1 40
v 12 0 40
v 7 0 40
v 7 -1 40
v 7 -1 36
v 7 0 40
v 7 0 36
v 7 -1 36
v 12 -1 36
v 7 0 36
v 12 0 36
v 12 -1 36
v 12 -1 40
v 12 0 36
v 12 0 40
v 12 0 40
v 7 0 40
v 12 0 36
v 7 0 36
v 12 -1 36
v 7 -1 36
v 12 -1 40
v 7 -1 40
v 16 -1 52
v 12 -1 52
v 16 0 52
v 12 0 52
v 12 -1 52
v 12 -1 36
v 12 0 52
v 12 0 36
v 12 -1 36
v 16 -1 36
v 12 0 36
v 16 0 36
v 16 -1 36
v 16 -1 52
v 16 0 36
v 16 0 52
v 16 0 52
v 12 0 52
v 16 0 36
v 12 0 36
v 16 -1 36
v 12 -1 36
v 16 -1 52
v 12 -1 52
v 12 -1 52
v 7 -1 52
v 12 0 52
v 7 0 52
v 7 -1 52
v 7 -1 48
v 7 0 52
v 7 0 48
v 7 -1 48
v 12 -1 48
v 7 0 48
v 12 0 48
v 12 -1 48
v 12 -1 52
v 12 0 48
v 12 0 52
v 12 0 52
v 7 0 52
v 12 0 48
v 7 0 48
v 12 -1 48
v 7 -1 48
v 12 -1 52
v 7 -1 52

vn 0 0 1
vn 0 0 1
vn 0 0 1
vn 0 0 1
vn -1 0 0
vn -1 0 0
vn -1 0 0
vn -1 0 0
vn 0 0 -1
vn 0 0 -1
vn 0 0 -1
vn 0 0 -1
vn 1 0 0
vn 1 0 0
vn 1 0 0
vn 1 0 0
vn 0 1 0
vn 0 1 0
vn 0 1 0
vn 0 1 0
vn 0 -1 0
vn 0 -1 0
vn 0 -1 0
vn 0 -1 0
vn 0 0 1
vn 0 0 1
vn 0 0 1
vn 0 0 1
vn -1 0 0
vn -1 0 0
vn -1 0 0
vn -1 0 0
vn 0 0 -1
vn 0 0 -1
vn 0 0 -1
vn 0 0 -1
vn 1 0 0
vn 1 0 0
vn 1 0 0
vn 1 0 0
vn 0 1 0
vn 0 1 0
vn 0 1 0
vn 0 1 0
vn 0 -1 0
vn 0 -1 0
vn 0 -1 0
vn 0 -1 0
vn 0 0 1
vn 0 0 1
vn 0 0 1
vn 0 0 1
vn -1 0 0
vn -1 0 0
vn -1 0 0
vn -1 0 0
vn 0 0 -1
vn 0 0 -1
vn 0 0 -1
vn 0 0 -1
vn 1 0 0
vn 1 0 0
vn 1 0 0
vn 1 0 0
vn 0 1 0
vn 0 1 0
vn 0 1 0
vn 0 1 0
vn 0 -1 0
vn 0 -1 0
vn 0 -1 0
vn 0 -1 0
vn 0 0 1
vn 0 0 1
vn 0 0 1
vn 0 0 1
vn -1 0 0
vn -1 0 0
vn -1 0 0
vn -1 0 0
vn 0 0 -1
vn 0 0 -1
vn 0 0 -1
vn 0 0 -1
vn 1 0 0
vn 1 0 0
vn 1 0 0
vn 1 0 0
vn 0 1 0
vn 0 1 0
vn 0 1 0
vn 0 1 0
vn 0 -1 0
vn 0 -1 0
vn 0 -1 0
vn 0 -1 0

vt -8 0
vt -13 0
vt -8 1
vt -13 1
vt 13 0
vt -3 0
vt 13 1
vt -3 1
vt 13 0
vt 8 0
vt 13 1
vt 8 1
vt 3 0
vt -13 0
vt 3 1
vt -13 1
vt 8 13
vt 13 13
vt 8 -3
vt 13 -3
vt -8 -3
vt -13 -3
vt -8 13
vt -13 13
vt -7 0
vt -12 0
vt -7 1
vt -12 1
vt 1 0
vt -3 0
vt 1 1
vt -3 1
vt 12 0
vt 7 0
vt 12 1
vt 7 1
vt 3 0
vt -1 0
vt 3 1
vt -1 1
vt 7 1
vt 12 1
vt 7 -3
vt 12 -3
vt -7 -3
vt -12 -3
vt -7 1
vt -12 1
vt -8 0
vt -12 0
vt -8 1
vt -12 1
vt 13 0
vt -3 0
vt 13 1
vt -3 1
vt 12 0
vt 8 0
vt 12 1
vt 8 1
vt 3 0
vt -13 0
vt 3 1
vt -13 1
vt 8 13
vt 12 13
vt 8 -3
vt 12 -3
vt -8 -3
vt -12 -3
vt -8 13
vt -12 13
vt -7 0
vt -12 0
vt -7 1
vt -12 1
vt 1 0
vt -3 0
vt 1 1
vt -3 1
vt 12 0
vt 7 0
vt 12 1
vt 7 1
vt 3 0
vt -1 0
vt 3 1
vt -1 1
vt 7 1
vt 12 1
vt 7 -3
vt 12 -3
vt -7 -3
vt -12 -3
vt -7 1
vt -12 1

g Floor_0
usemtl M05_FloorBlack
f 3/3/3 4/4/4 2/2/2 1/1/1
f 7/7/7 8/8/8 6/6/6 5/5/5
f 11/11/11 12/12/12 10/10/10 9/9/9
f 15/15/15 16/16/16 14/14/14 13/13/13
f 19/19/19 20/20/20 18/18/18 17/17/17
f 23/23/23 24/24/24 22/22/22 21/21/21
f 27/27/27 28/28/28 26/26/26 25/25/25
f 31/31/31 32/32/32 30/30/30 29/29/29
f 35/35/35 36/36/36 34/34/34 33/33/33
f 39/39/39 40/40/40 38/38/38 37/37/37
f 43/43/43 44/44/44 42/42/42 41/41/41
f 47/47/47 48/48/48 46/46/46 45/45/45
f 51/51/51 52/52/52 50/50/50 49/49/49
f 55/55/55 56/56/56 54/54/54 53/53/53
f 59/59/59 60/60/60 58/58/58 57/57/57
f 63/63/63 64/64/64 62/62/62 61/61/61
f 67/67/67 68/68/68 66/66/66 65/65/65
f 71/71/71 72/72/72 70/70/70 69/69/69
f 75/75/75 76/76/76 74/74/74 73/73/73
f 79/79/79 80/80/80 78/78/78 77/77/77
f 83/83/83 84/84/84 82/82/82 81/81/81
f 87/87/87 88/88/88 86/86/86 85/85/85
f 91/91/91 92/92/92 90/90/90 89/89/89

g Floor_1
usemtl M06_WallBlack
f 95/95/95 96/96/96 94/94/94 93/93/93

